pulsarcpu/pulsarcpu.sim/sim_1/behav/xsim/dump.vcd
$date
   Sun Jun 11 15:01:57 2023
$end
$version
  2022.2
$end
$timescale
  1ps
$end
$scope module testbench $end
$scope module pipe $end
$var wire 1 ! CLK $end
$var wire 1 " RESET $end
$var wire 1 # STALL $end
$var wire 1 $ INS_BUSY $end
$var wire 32 % IIN [31:0] $end
$var wire 32 & DTEMP [31:0] $end
$var wire 1 ' DATA_RD_VALID $end
$var wire 1 ( DATA_WR_VALID $end
$var wire 1 ) FAULT $end
$var reg 32 * PIPE_IFDCR [31:0] $end
$var reg 32 + PIPE_INSTR [31:0] $end
$var reg 32 , PIPE_IMM [31:0] $end
$var reg 32 - PIPE_EXCIMM [31:0] $end
$var reg 32 . PIPE_PC [31:0] $end
$var reg 32 / PIPE_IFPC [31:0] $end
$var reg 32 0 PIPE_FPC [31:0] $end
$var wire 32 1 PIPE_RS1 [31:0] $end
$var wire 32 2 PIPE_RS2 [31:0] $end
$var reg 1 3 PIPE_BRT $end
$var wire 1 4 PIPE_BRSTALL $end
$var reg 32 5 PIPE_ALU_RES [31:0] $end
$var reg 32 6 PIPE_NEXTPC [31:0] $end
$var wire 32 7 PIPE_ALU_OP1 [31:0] $end
$var wire 32 8 PIPE_ALU_OP2 [31:0] $end
$var wire 33 9 PIPE_SRES_SIGNED [32:0] $end
$var wire 33 : PIPE_SRES_UNSIGNED [32:0] $end
$var wire 32 ; PIPE_ALU_WADDR [31:0] $end
$var wire 32 < DATAMEM_DIN [31:0] $end
$var wire 1 = DATAMEM_WE $end
$var wire 1 > DATAMEM_RE $end
$var wire 32 ? DATAMEM_WRADDR [31:0] $end
$var wire 32 @ DATAMEM_RDADDR [31:0] $end
$var wire 32 A DATAMEM_DOUT [31:0] $end
$var wire 4 B DATAMEM_WB [3:0] $end
$var wire 1 C DATAMEM_RVCHECK $end
$var wire 1 D INSMEM_READY $end
$var wire 32 E INSMEM_ADDR [31:0] $end
$var reg 32 F PIPE_WBCR [31:0] $end
$var reg 32 G PIPE_WBRES [31:0] $end
$var reg 32 H PIPE_WRADDR [31:0] $end
$var reg 32 I PIPE_WRDATA [31:0] $end
$var reg 32 J PIPE_RDDATA [31:0] $end
$var wire 1 K PIPE_WBSTALL $end
$scope module FETCH $end
$var wire 1 ! CLK $end
$var wire 1 " RESET $end
$var wire 1 # WAIT $end
$var wire 1 $ INS_BUSY $end
$var wire 32 % IIN [31:0] $end
$var reg 1 L FAULT $end
$upscope $end
$scope module DECODE $end
$var wire 1 ! CLK $end
$var wire 1 " RESET $end
$var integer 32 M i [31:0] $end
$upscope $end
$scope module EXECUTE $end
$var wire 1 ! CLK $end
$var wire 1 " RESET $end
$upscope $end
$scope module WB $end
$var wire 1 ! CLK $end
$var wire 1 " RESET $end
$upscope $end
$upscope $end
$upscope $end
$enddefinitions $end
#0
$dumpvars
1!
0"
1#
1$
bx %
bx &
1'
1(
0)
b1 *
b10011 +
b0 ,
b0 -
b0 .
b0 /
b0 0
b0 1
b0 2
03
04
bx 5
b100 6
b0 7
b0 8
b0 9
b0 :
b0 ;
b0 <
0=
0>
b0 ?
b0 @
bx A
b0 B
1C
0D
b0 E
b0 F
b0 G
b0 H
b0 I
bx J
0K
0L
bx M
$end
#2000
0!
#4000
1!
1"
b10010010011 %
b1 *
b10011 +
#6000
0!
#8000
1!
b1 *
#10000
0!
#12000
1!
0#
b1 *
#14000
0!
#16000
1!
b0 *
b10010010011 +
b0 1
b0 2
1D
#18000
0!
#20000
1!
b1001000000000000000010000100 *
b100 0
b0 1
b0 2
03
b0 5
b1000 6
b0 8
b100 E
bx G
#22000
0!
#24000
1!
b10000000000001110010011 %
b1001000000000000000010000100 *
b10000000000001110010011 +
b100 ,
b100 /
b1000 0
b0 1
b0 2
03
b1100 6
b1000 E
b100100000100 F
b0 G
#26000
0!
#28000
1!
b1100000000011110010011 %
b111001000000000000010000100 *
b1100000000011110010011 +
b11 ,
b100 -
b100 .
b1000 /
b1100 0
b0 1
b0 2
03
b100 5
b10000 6
b100 8
b111111111111111111111111111111100 9
b111111111111111111111111111111100 :
b100 ;
b100 @
b1100 E
#30000
0!
#32000
1!
b111101010010000000100011 %
b1111000110000000000010000100 *
b111101010010000000100011 +
b0 ,
b11 -
b1000 .
b1100 /
b10000 0
b0 1
b0 2
03
b11 5
b10100 6
b11 8
b111111111111111111111111111111101 9
b111111111111111111111111111111101 :
b11 ;
b11 @
b10000 E
b11100000100 F
b100 G
#34000
0!
#36000
1!
b10100000000011110010011 %
b11110101001000000010000 *
b10100000000011110010011 +
b101 ,
b0 -
b1100 .
b10000 /
b10100 0
b0 1
b11 2
03
b11 5
b11000 6
b11 8
b111111111111111111111111111111101 9
b111111111111111111111111111111101 :
b0 ;
b0 @
b10100 E
b1100000000000000111100000100 F
b11 G
bx J
#38000
0!
#40000
1!
b111101010010001000100011 %
b1111001010000000000010000100 *
b111101010010001000100011 +
b100 ,
b101 -
b10000 .
b10100 /
b11000 0
b0 1
b0 2
03
b101 5
b11100 6
b101 8
b111111111111111111111111111111011 9
b111111111111111111111111111111011 :
b101 ;
b11 <
1=
b101 @
b1111 B
b11000 E
b11110000000000000000000001010000 F
b11 I
bx J
#42000
0!
#44000
1!
b100000000011110010011 %
b100011110101001000000010000 *
b100000000011110010011 +
b1 ,
b100 -
b10100 .
b11000 /
b11100 0
b0 1
b101 2
03
b101 5
b100000 6
b101 8
b111111111111111111111111111111011 9
b111111111111111111111111111111011 :
b100 ;
0=
b100 @
b11100 E
b11110100000000000000111100000100 F
b101 G
bx J
#46000
0!
#48000
1!
b111101010010010000100011 %
b1111000010000000000010000100 *
b111101010010010000100011 +
b1000 ,
b1 -
b11000 .
b11100 /
b100000 0
b0 1
b0 2
03
b1 5
b100100 6
b1 8
b111111111111111111111111111111111 9
b111111111111111111111111111111111 :
b1 ;
b101 <
1=
b100 ?
b1 @
b100000 E
b11110000000000000000010001010000 F
b100 H
b101 I
bx J
#50000
0!
#52000
1!
b1000000000011110010011 %
b1000011110101001000000010000 *
b1000000000011110010011 +
b10 ,
b1000 -
b11100 .
b100000 /
b100100 0
b0 1
b1 2
03
b1 5
b101000 6
b1 8
b111111111111111111111111111111111 9
b111111111111111111111111111111111 :
b1000 ;
0=
b1000 @
b100100 E
b11110100000000000000111100000100 F
b1 G
bx J
#54000
0!
#56000
1!
b111101010010011000100011 %
b1111000100000000000010000100 *
b111101010010011000100011 +
b1100 ,
b10 -
b100000 .
b100100 /
b101000 0
b0 1
b0 2
03
b10 5
b101100 6
b10 8
b111111111111111111111111111111110 9
b111111111111111111111111111111110 :
b10 ;
b1 <
1=
b1000 ?
b10 @
b101000 E
b11110000000000000000100001010000 F
b1000 H
b1 I
bx J
#58000
0!
#60000
1!
b10000000000011110010011 %
b1100011110101001000000010000 *
b10000000000011110010011 +
b100 ,
b1100 -
b100100 .
b101000 /
b101100 0
b0 1
b10 2
03
b10 5
b110000 6
b10 8
b111111111111111111111111111111110 9
b111111111111111111111111111111110 :
b1100 ;
0=
b1100 @
b101100 E
b11111000000000000000111100000100 F
b10 G
bx J
#62000
0!
#64000
1!
b111101010010100000100011 %
b1111001000000000000010000100 *
b111101010010100000100011 +
b10000 ,
b100 -
b101000 .
b101100 /
b110000 0
b0 1
b0 2
03
b100 5
b110100 6
b100 8
b111111111111111111111111111111100 9
b111111111111111111111111111111100 :
b100 ;
b10 <
1=
b1100 ?
b100 @
b110000 E
b11110000000000000000110001010000 F
b1100 H
b10 I
bx J
#66000
0!
#68000
1!
b10100110111 %
b10000011110101001000000010000 *
b10100110111 +
b0 ,
b10000 -
b101100 .
b110000 /
b110100 0
b0 1
b100 2
03
b100 5
b111000 6
b100 8
b111111111111111111111111111111100 9
b111111111111111111111111111111100 :
b10000 ;
0=
b10000 @
b110100 E
b11110000000000000000111100000100 F
b100 G
bx J
#70000
0!
#72000
1!
b1010000010100010011 %
b1010000000000000000100000000 *
b1010000010100010011 +
b0 -
b110000 .
b110100 /
b111000 0
b0 1
b0 2
03
b0 5
b111100 6
b0 8
b0 9
b0 :
b0 ;
b100 <
1=
b10000 ?
b0 @
b111000 E
b11110000000000000001000001010000 F
b10000 H
b100 I
bx J
#74000
0!
#76000
1!
b1010010001010000011 %
b1010000000101000000010000100 *
b1010010001010000011 +
b110100 .
b111000 /
b111100 0
b0 1
b0 2
03
b1000000 6
b0 8
0=
b111100 E
b11110000000000000000101000000100 F
b0 G
#78000
0!
#80000
1!
b1000000100100111000100100110011 %
b101000000101010000010010000 *
b1000000100100111000100100110011 +
b111000 .
b111100 /
b1000000 0
b0 1
b0 2
03
bx 5
b1000100 6
1>
b1000000 E
bx J
#82000
0!
#84000
1!
b10001010010001100000011 %
b11 &
b10010010010011100000001000100 *
b10001010010001100000011 +
b100 ,
b111100 .
b1000000 /
b1000100 0
b100 1
b0 2
03
b100 5
b1001000 6
b100 7
b0 8
b100 9
b100 :
b100 ;
0>
b100 @
b11 A
b1000100 E
b11110000000000000000010110010100 F
bx G
b11 J
#86000
0!
#88000
1!
b11000101100011001100011 %
b110001000101010000010010000 *
b11000101100011001100011 +
b1100 ,
b100 -
b1000000 .
b1000100 /
b1001000 0
b0 1
b0 2
03
bx 5
b1001100 6
b0 7
b100 8
b111111111111111111111111111111100 9
b111111111111111111111111111111100 :
b100 ;
1>
b100 @
b1001000 E
b11110000000000000001001000000100 F
b100 G
b11 J
#90000
0!
#92000
1!
b11001010010000000100011 %
b101 &
b1100001100010100100000100000 *
b11001010010000000100011 +
b0 ,
b1100 -
b1000100 .
b1001000 /
b1001100 0
b11 1
b101 2
13
b1010000 6
b11 7
b101 8
b111111111111111111111111111111110 9
b111111111111111111111111111111110 :
b1111 ;
0>
b1111 @
b101 A
b1001100 E
b11110000000000000000011010010100 F
bx G
b101 J
#94000
0!
#96000
1!
b10101010010001000100011 %
b1100101001000000010000 *
b10101010010001000100011 +
b100 ,
b0 -
b1001000 .
b1001100 /
b1010000 0
b0 1
b101 2
03
14
b101 5
b1010100 6
b0 7
b101 8
b111111111111111111111111111111011 9
b111111111111111111111111111111011 :
b0 ;
b0 @
b1010000 E
b11111100000000000010110000100000 F
b101 J
#98000
0!
#100000
1!
b11000101010111000110011 %
b100001010101001000000010000 *
b11000101010111000110011 +
b0 ,
b100 -
b1001100 .
b1010000 /
b1010100 0
b0 1
b11 2
14
b11 5
b1011000 6
b11 8
b111111111111111111111111111111101 9
b111111111111111111111111111111101 :
b100 ;
b101 <
b0 ?
b100 @
b1010100 E
b11110000000000000100000000010001 F
b101 G
b0 H
b101 I
b101 J
1K
#102000
0!
#104000
1!
b11100000010001100011 %
b11100001100010100000000010100 *
b11100000010001100011 +
b1000 ,
b0 -
b1010000 .
b1010100 /
b1011000 0
b11 1
b101 2
03
04
b1 5
b1011100 6
b11 7
b101 8
b111111111111111111111111111111110 9
b111111111111111111111111111111110 :
b11 ;
b11 @
b1011000 E
b11110000000000000000010000010010 F
b11 G
1K
#106000
0!
#108000
1!
b110000001010110011 %
b1000000001110000100000000000 *
b110000001010110011 +
b0 ,
b1000 -
b1010100 .
b1011000 /
b1011100 0
b1 1
b0 2
03
bx 5
b1100000 6
b1 7
b0 8
b1 9
b1 :
b1001 ;
b1001 @
b1011100 E
b11111100000000000001110000010100 F
b1 G
b0 J
0K
#110000
0!
#112000
1!
b10001010000010100010011 %
b101000000011000000000000100 *
b10001010000010100010011 +
b100 ,
b0 -
b1011000 .
b1011100 /
b1100000 0
b101 1
b0 2
03
b101 5
b1100100 6
b101 7
b0 8
b101 9
b101 :
b101 ;
b101 @
b1100000 E
b11110100000000000000100000000000 F
bx G
b0 J
#114000
0!
#116000
1!
b11111111111110010000100100010011 %
b1010001000101000000010000100 *
b11111111111110010000100100010011 +
b11111111111111111111111111111111 ,
b100 -
b1011100 .
b1100000 /
b1100100 0
b0 1
b0 2
03
b100 5
b1101000 6
b0 7
b100 8
b111111111111111111111111111111100 9
b111111111111111111111111111111100 :
b100 ;
b100 @
b1100100 E
b11110100000000000000010100000100 F
b101 G
#118000
0!
#120000
1!
b11111100000010010001111011100011 %
b10010111111001000000010000100 *
b11111100000010010001111011100011 +
b11111111111111111111111111011100 ,
b11111111111111111111111111111111 -
b1100000 .
b1100100 /
b1101000 0
b100 1
bx 2
03
b11 5
b1101100 6
b100 7
b11111111111111111111111111111111 8
b101 9
b100000000000000000000000000000101 :
b11 ;
b11 @
b1101000 E
b11110000000000000000101000000100 F
b100 G
b101 J
#122000
0!
#124000
1!
b101001000010010010011 %
b11101000001001000100001001000 *
b101001000010010010011 +
b1 ,
b11111111111111111111111111011100 -
b1100100 .
b1101000 /
b1101100 0
b11 1
b0 2
13
bx 5
b1000000 6
b11 7
b0 8
b11 9
b11 :
b11111111111111111111111111011111 ;
b11111111111111111111111111011111 @
b1101100 E
b11111100000000000001001000000100 F
b11 G
b0 J
#126000
0!
#128000
1!
b11111100011101001100001011100011 %
b1001000010100100000010000100 *
b11111100011101001100001011100011 +
b11111111111111111111111111000100 ,
b1 -
b1101000 .
b1101100 /
b1000000 0
b0 1
b0 2
03
14
b1 5
b1000100 6
b0 7
b1 8
b111111111111111111111111111111111 9
b111111111111111111111111111111111 :
b1 ;
b1 @
b1000000 E
b11111100000000000011110100001000 F
bx G
b0 J
#130000
0!
#132000
1!
b10001010010001100000011 %
b101001110100100100001100000 *
b10001010010001100000011 +
b100 ,
b11111111111111111111111111000100 -
b1101100 .
b1000000 /
b1000100 0
b0 1
b100 2
14
bx 5
b110000 6
b0 7
b100 8
b111111111111111111111111111111100 9
b111111111111111111111111111111100 :
b11111111111111111111111111000100 ;
b11111111111111111111111111000100 @
b1000100 E
b11110100000000000100100100000101 F
b1 G
b0 J
1K
#134000
0!
#136000
1!
b11000101100011001100011 %
b110001000101010000010010000 *
b11000101100011001100011 +
b1100 ,
b100 -
b1000000 .
b1000100 /
b1001000 0
b100 1
b0 2
03
04
b1001100 6
b100 7
b100 8
b0 9
b0 :
b1000 ;
1>
b1000 @
b1001000 E
b11110000000000000000010100100010 F
bx G
b101 J
1K
#138000
0!
#140000
1!
b11001010010000000100011 %
b1 &
b1100001100010100100000100000 *
b11001010010000000100011 +
b0 ,
b1100 -
b1000100 .
b1001000 /
b1001100 0
b101 1
b1 2
03
b1010000 6
b101 7
b1 8
b100 9
b100 :
b10001 ;
0>
b10001 @
b1 A
b1001100 E
b11110000000000000000011010010100 F
b1 J
0K
#142000
0!
#144000
1!
b10101010010001000100011 %
b1100101001000000010000 *
b10101010010001000100011 +
b100 ,
b0 -
b1001000 .
b1001100 /
b1010000 0
b100 1
b1 2
03
b1 5
b1010100 6
b100 7
b1 8
b11 9
b11 :
b100 ;
b100 @
b1010000 E
b11110100000000000000110000100000 F
b1 J
#146000
0!
#148000
1!
b11000101010111000110011 %
b100001010101001000000010000 *
b11000101010111000110011 +
b0 ,
b100 -
b1001100 .
b1010000 /
b1010100 0
b100 1
b101 2
03
b101 5
b1011000 6
b101 8
b111111111111111111111111111111111 9
b111111111111111111111111111111111 :
b1000 ;
b1 <
1=
b100 ?
b1000 @
b1010100 E
b11110000000000000000000001010000 F
b1 G
b100 H
b1 I
b1 J
#150000
0!
#152000
1!
b11100000010001100011 %
b11100001100010100000000010100 *
b11100000010001100011 +
b1000 ,
b0 -
b1010000 .
b1010100 /
b1011000 0
b101 1
b1 2
03
b0 5
b1011100 6
b101 7
b1 8
b100 9
b100 :
b101 ;
b101 <
b1000 ?
b101 @
b1011000 E
b11110000000000000000010001010000 F
b101 G
b1000 H
b101 I
#154000
0!
#156000
1!
b110000001010110011 %
b1000000001110000100000000000 *
b110000001010110011 +
b0 ,
b1000 -
b1010100 .
b1011000 /
b1011100 0
b0 1
b0 2
13
bx 5
b1011100 6
b0 7
b0 8
b0 9
b0 :
b1000 ;
0=
b1000 @
b1011100 E
b11110100000000000001110000010100 F
b0 G
b0 J
#158000
0!
#160000
1!
b10001010000010100010011 %
b101000000011000000000000100 *
b10001010000010100010011 +
b100 ,
b0 -
b1011000 .
b1011100 /
b1 1
b0 2
03
14
b1 5
b1100000 6
b1 7
b0 8
b1 9
b1 :
b1 ;
b1 @
b11110000000000000010100000000000 F
bx G
b1 J
#162000
0!
#164000
1!
b1010001000101000000010000100 *
b100 -
b1011100 .
b1100000 0
b100 1
b0 2
14
b1000 5
b1100100 6
b100 7
b100 8
b0 9
b0 :
b1000 ;
b1000 @
b1100000 E
b11110100000000000100010100000101 F
b1 G
b0 J
1K
#166000
0!
#168000
1!
b11111111111110010000100100010011 %
b1010001000101000000010000100 *
b11111111111110010000100100010011 +
b11111111111111111111111111111111 ,
b1100000 /
b1100100 0
b100 1
b0 2
03
04
b1101000 6
b1100100 E
b11110000000000000000101000000110 F
b1000 G
b1 J
1K
#170000
0!
#172000
1!
b11111100000010010001111011100011 %
b10010111111001000000010000100 *
b11111100000010010001111011100011 +
b11111111111111111111111111011100 ,
b11111111111111111111111111111111 -
b1100000 .
b1100100 /
b1101000 0
b11 1
bx 2
03
b10 5
b1101100 6
b11 7
b11111111111111111111111111111111 8
b100 9
b100000000000000000000000000000100 :
b10 ;
b10 @
b1101000 E
b11110000000000000000101000000100 F
0K
#174000
0!
#176000
1!
b101001000010010010011 %
b11101000001001000100001001000 *
b101001000010010010011 +
b1 ,
b11111111111111111111111111011100 -
b1100100 .
b1101000 /
b1101100 0
b10 1
b0 2
13
bx 5
b1000000 6
b10 7
b0 8
b10 9
b10 :
b11111111111111111111111111011110 ;
b11111111111111111111111111011110 @
b1101100 E
b11111000000000000001001000000100 F
b10 G
b0 J
#178000
0!
#180000
1!
b11111100011101001100001011100011 %
b1001000010100100000010000100 *
b11111100011101001100001011100011 +
b11111111111111111111111111000100 ,
b1 -
b1101000 .
b1101100 /
b1000000 0
b0 1
b0 2
03
14
b1 5
b1000100 6
b0 7
b1 8
b111111111111111111111111111111111 9
b111111111111111111111111111111111 :
b1 ;
b1 @
b1000000 E
b11111000000000000011110100001000 F
bx G
b0 J
#182000
0!
#184000
1!
b10001010010001100000011 %
b101001110100100100001100000 *
b10001010010001100000011 +
b100 ,
b11111111111111111111111111000100 -
b1101100 .
b1000000 /
b1000100 0
b0 1
b100 2
14
bx 5
b110000 6
b0 7
b100 8
b111111111111111111111111111111100 9
b111111111111111111111111111111100 :
b11111111111111111111111111000100 ;
b11111111111111111111111111000100 @
b1000100 E
b11110100000000000100100100000101 F
b1 G
b0 J
1K
#186000
0!
#188000
1!
b11000101100011001100011 %
b110001000101010000010010000 *
b11000101100011001100011 +
b1100 ,
b100 -
b1000000 .
b1000100 /
b1001000 0
b1000 1
b0 2
03
04
b1001100 6
b1000 7
b100 8
b100 9
b100 :
b1100 ;
1>
b1100 @
b1001000 E
b11110000000000000000010100100010 F
bx G
b1 J
1K
#190000
0!
#192000
1!
b11001010010000000100011 %
b10 &
b1100001100010100100000100000 *
b11001010010000000100011 +
b0 ,
b1100 -
b1000100 .
b1001000 /
b1001100 0
b101 1
b10 2
03
b1010000 6
b101 7
b10 8
b11 9
b11 :
b10001 ;
0>
b10001 @
b10 A
b1001100 E
b11110000000000000000011010010100 F
b10 J
0K
#194000
0!
#196000
1!
b10101010010001000100011 %
b1100101001000000010000 *
b10101010010001000100011 +
b100 ,
b0 -
b1001000 .
b1001100 /
b1010000 0
b1000 1
b10 2
03
b10 5
b1010100 6
b1000 7
b10 8
b110 9
b110 :
b1000 ;
b1000 @
b1010000 E
b11110100000000000000110000100000 F
b10 J
#198000
0!
#200000
1!
b11000101010111000110011 %
b100001010101001000000010000 *
b11000101010111000110011 +
b0 ,
b100 -
b1001100 .
b1010000 /
b1010100 0
b1000 1
b101 2
03
b101 5
b1011000 6
b101 8
b11 9
b11 :
b1100 ;
b10 <
1=
b1100 @
b1010100 E
b11110000000000000000000001010000 F
b10 G
b10 I
b10 J
#202000
0!
#204000
1!
b11100000010001100011 %
b11100001100010100000000010100 *
b11100000010001100011 +
b1000 ,
b0 -
b1010000 .
b1010100 /
b1011000 0
b101 1
b10 2
03
b0 5
b1011100 6
b101 7
b10 8
b11 9
b11 :
b101 ;
b101 <
b1100 ?
b101 @
b1011000 E
b11110000000000000000010001010000 F
b101 G
b1100 H
b101 I
#206000
0!
#208000
1!
b110000001010110011 %
b1000000001110000100000000000 *
b110000001010110011 +
b0 ,
b1000 -
b1010100 .
b1011000 /
b1011100 0
b0 1
b0 2
13
bx 5
b1011100 6
b0 7
b0 8
b0 9
b0 :
b1000 ;
0=
b1000 @
b1011100 E
b11110100000000000001110000010100 F
b0 G
b0 J
#210000
0!
#212000
1!
b10001010000010100010011 %
b101000000011000000000000100 *
b10001010000010100010011 +
b100 ,
b0 -
b1011000 .
b1011100 /
b10 1
b0 2
03
14
b10 5
b1100000 6
b10 7
b0 8
b10 9
b10 :
b10 ;
b10 @
b11110000000000000010100000000000 F
bx G
b10 J
#214000
0!
#216000
1!
b1010001000101000000010000100 *
b100 -
b1011100 .
b1100000 0
b1000 1
b0 2
14
b1100 5
b1100100 6
b1000 7
b100 8
b100 9
b100 :
b1100 ;
b1100 @
b1100000 E
b11111000000000000100010100000101 F
b10 G
b0 J
1K
#218000
0!
#220000
1!
b11111111111110010000100100010011 %
b1010001000101000000010000100 *
b11111111111110010000100100010011 +
b11111111111111111111111111111111 ,
b1100000 /
b1100100 0
b1000 1
b0 2
03
04
b1101000 6
b1100100 E
b11110000000000000000101000000110 F
b1100 G
b10 J
1K
#222000
0!
#224000
1!
b11111100000010010001111011100011 %
b10010111111001000000010000100 *
b11111100000010010001111011100011 +
b11111111111111111111111111011100 ,
b11111111111111111111111111111111 -
b1100000 .
b1100100 /
b1101000 0
b10 1
bx 2
03
b1 5
b1101100 6
b10 7
b11111111111111111111111111111111 8
b11 9
b100000000000000000000000000000011 :
b1 ;
b1 @
b1101000 E
b11110000000000000000101000000100 F
0K
#226000
0!
#228000
1!
b101001000010010010011 %
b11101000001001000100001001000 *
b101001000010010010011 +
b1 ,
b11111111111111111111111111011100 -
b1100100 .
b1101000 /
b1101100 0
b1 1
b0 2
13
bx 5
b1000000 6
b1 7
b0 8
b1 9
b1 :
b11111111111111111111111111011101 ;
b11111111111111111111111111011101 @
b1101100 E
b11110100000000000001001000000100 F
b1 G
b10 J
#230000
0!
#232000
1!
b11111100011101001100001011100011 %
b1001000010100100000010000100 *
b11111100011101001100001011100011 +
b11111111111111111111111111000100 ,
b1 -
b1101000 .
b1101100 /
b1000000 0
b0 1
b0 2
03
14
b1 5
b1000100 6
b0 7
b1 8
b111111111111111111111111111111111 9
b111111111111111111111111111111111 :
b1 ;
b1 @
b1000000 E
b11110100000000000011110100001000 F
bx G
b0 J
#234000
0!
#236000
1!
b10001010010001100000011 %
b101001110100100100001100000 *
b10001010010001100000011 +
b100 ,
b11111111111111111111111111000100 -
b1101100 .
b1000000 /
b1000100 0
b0 1
b100 2
14
bx 5
b110000 6
b0 7
b100 8
b111111111111111111111111111111100 9
b111111111111111111111111111111100 :
b11111111111111111111111111000100 ;
b11111111111111111111111111000100 @
b1000100 E
b11110100000000000100100100000101 F
b1 G
b0 J
1K
#238000
0!
#240000
1!
b11000101100011001100011 %
b110001000101010000010010000 *
b11000101100011001100011 +
b1100 ,
b100 -
b1000000 .
b1000100 /
b1001000 0
b1100 1
b0 2
03
04
b1001100 6
b1100 7
b100 8
b1000 9
b1000 :
b10000 ;
1>
b10000 @
b1001000 E
b11110000000000000000010100100010 F
bx G
b10 J
1K
#242000
0!
#244000
1!
b11001010010000000100011 %
b100 &
b1100001100010100100000100000 *
b11001010010000000100011 +
b0 ,
b1100 -
b1000100 .
b1001000 /
b1001100 0
b101 1
b100 2
03
b1010000 6
b101 7
b100 8
b1 9
b1 :
b10001 ;
0>
b10001 @
b100 A
b1001100 E
b11110000000000000000011010010100 F
b100 J
0K
#246000
0!
#248000
1!
b10101010010001000100011 %
b1100101001000000010000 *
b10101010010001000100011 +
b100 ,
b0 -
b1001000 .
b1001100 /
b1010000 0
b1100 1
b100 2
03
b100 5
b1010100 6
b1100 7
b100 8
b1000 9
b1000 :
b1100 ;
b1100 @
b1010000 E
b11110100000000000000110000100000 F
b100 J
#250000
0!
#252000
1!
b11000101010111000110011 %
b100001010101001000000010000 *
b11000101010111000110011 +
b0 ,
b100 -
b1001100 .
b1010000 /
b1010100 0
b1100 1
b101 2
03
b101 5
b1011000 6
b101 8
b111 9
b111 :
b10000 ;
b100 <
1=
b10000 @
b1010100 E
b11110000000000000000000001010000 F
b100 G
b100 I
b100 J
#254000
0!
#256000
1!
b11100000010001100011 %
b11100001100010100000000010100 *
b11100000010001100011 +
b1000 ,
b0 -
b1010000 .
b1010100 /
b1011000 0
b101 1
b100 2
03
b0 5
b1011100 6
b101 7
b100 8
b1 9
b1 :
b101 ;
b101 <
b10000 ?
b101 @
b1011000 E
b11110000000000000000010001010000 F
b101 G
b10000 H
b101 I
#258000
0!
#260000
1!
b110000001010110011 %
b1000000001110000100000000000 *
b110000001010110011 +
b0 ,
b1000 -
b1010100 .
b1011000 /
b1011100 0
b0 1
b0 2
13
bx 5
b1011100 6
b0 7
b0 8
b0 9
b0 :
b1000 ;
0=
b1000 @
b1011100 E
b11110100000000000001110000010100 F
b0 G
b0 J
#262000
0!
#264000
1!
b10001010000010100010011 %
b101000000011000000000000100 *
b10001010000010100010011 +
b100 ,
b0 -
b1011000 .
b1011100 /
b100 1
b0 2
03
14
b100 5
b1100000 6
b100 7
b0 8
b100 9
b100 :
b100 ;
b100 @
b11110000000000000010100000000000 F
bx G
b100 J
#266000
0!
#268000
1!
b1010001000101000000010000100 *
b100 -
b1011100 .
b1100000 0
b1100 1
b0 2
14
b10000 5
b1100100 6
b1100 7
b100 8
b1000 9
b1000 :
b10000 ;
b10000 @
b1100000 E
b11110000000000000100010100000101 F
b100 G
1K
#270000
0!
#272000
1!
b11111111111110010000100100010011 %
b1010001000101000000010000100 *
b11111111111110010000100100010011 +
b11111111111111111111111111111111 ,
b1100000 /
b1100100 0
b1100 1
b0 2
03
04
b1101000 6
b1100100 E
b11110000000000000000101000000110 F
b10000 G
1K
#274000
0!
#276000
1!
b11111100000010010001111011100011 %
b10010111111001000000010000100 *
b11111100000010010001111011100011 +
b11111111111111111111111111011100 ,
b11111111111111111111111111111111 -
b1100000 .
b1100100 /
b1101000 0
b1 1
bx 2
03
b0 5
b1101100 6
b1 7
b11111111111111111111111111111111 8
b10 9
b100000000000000000000000000000010 :
b0 ;
b0 @
b1101000 E
b11110000000000000000101000000100 F
0K
#278000
0!
#280000
1!
b101001000010010010011 %
b11101000001001000100001001000 *
b101001000010010010011 +
b1 ,
b11111111111111111111111111011100 -
b1100100 .
b1101000 /
b1101100 0
b0 1
b0 2
03
bx 5
b1110000 6
b0 7
b0 8
b0 9
b0 :
b11111111111111111111111111011100 ;
b11111111111111111111111111011100 @
b1101100 E
b11110000000000000001001000000100 F
b0 G
b100 J
#282000
0!
#284000
1!
b11111100011101001100001011100011 %
b1001000010100100000010000100 *
b11111100011101001100001011100011 +
b11111111111111111111111111000100 ,
b1 -
b1101000 .
b1101100 /
b1110000 0
b0 1
b0 2
03
b1 5
b1110100 6
b1 8
b111111111111111111111111111111111 9
b111111111111111111111111111111111 :
b1 ;
b1 @
b1110000 E
b11110000000000000001110100001000 F
bx G
b100 J
#286000
0!
#288000
1!
b1111110000000100000010011 %
b101001110100100100001100000 *
b1111110000000100000010011 +
b11111 ,
b11111111111111111111111111000100 -
b1101100 .
b1110000 /
b1110100 0
b1 1
b100 2
13
bx 5
b110000 6
b1 7
b100 8
b111111111111111111111111111111101 9
b111111111111111111111111111111101 :
b11111111111111111111111111000101 ;
b11111111111111111111111111000101 @
b1110100 E
b11110100000000000000100100000100 F
b1 G
b0 J
#290000
0!
#292000
1!
b1000000001100111 %
b10000111111000000000010000100 *
b1000000001100111 +
b0 ,
b11111 -
b1110000 .
b1110100 /
b110000 0
b0 1
bx 2
03
14
b11111 5
b110100 6
b0 7
b11111 8
b111111111111111111111111111100001 9
b111111111111111111111111111100001 :
b11111 ;
b11111 @
b110000 E
b11110100000000000010010100100000 F
bx G
b0 J
#294000
0!
#296000
1!
b10100110111 %
b100010010000000 *
b10100110111 +
b0 -
b1110100 .
b110000 /
b110100 0
b0 1
b0 2
14
b1111000 5
b0 6
b0 8
b0 9
b0 :
b0 ;
b0 @
b110100 E
b11111100000000000101000000000101 F
b11111 G
b0 J
1K
#298000
0!
#300000
1!
b1010000010100010011 %
b1010000000000000000100000000 *
b1010000010100010011 +
b110000 .
b110100 /
b111000 0
b0 1
b0 2
03
04
b0 5
b111100 6
b0 8
b111000 E
b11110000000000000000000000000110 F
b1111000 G
b100 J
1K
#302000
0!
#304000
1!
b1010010001010000011 %
b1010000000101000000010000100 *
b1010010001010000011 +
b110100 .
b111000 /
b111100 0
b0 1
b0 2
03
b1000000 6
b0 7
b0 8
b0 9
b0 :
b0 ;
b0 @
b111100 E
b11110000000000000000101000000100 F
b0 G
0K
#306000
0!
#308000
1!
b1000000100100111000100100110011 %
b101000000101010000010010000 *
b1000000100100111000100100110011 +
b111000 .
b111100 /
b1000000 0
b0 1
b0 2
03
bx 5
b1000100 6
1>
b1000000 E
b100 J
#310000
0!
#312000
1!
b10001010010001100000011 %
b11 &
b10010010010011100000001000100 *
b10001010010001100000011 +
b100 ,
b111100 .
b1000000 /
b1000100 0
b100 1
b1 2
03
b11 5
b1001000 6
b100 7
b1 8
b11 9
b11 :
b100 ;
0>
b100 @
b11 A
b1000100 E
b11110000000000000000010110010100 F
bx G
b11 J
#314000
0!
